…
    ## ── Column specification ────────────────────────────────────────────────────────
    ## Delimiter: "\t"
    ## chr (1): Gene
    ## dbl (6): Two_Four_c_rep1, Two_Four_c_rep2, Four_Eight_c_rep1, Four_Eight_c_r...

    ## 
    ## ℹ Use `spec()` to retrieve the full column specification for this data.
    ## ℹ Specify the column types or set `show_col_types = FALSE` to quiet this message.

``` r
print(read_counts)
```

    ## # A tibble: 15,544 × 7
    ##    Gene   Two_Four_c_rep1 Two_Four_c_rep2 Four_Eight_c_rep1 Four_Eight_c_rep2
    ##    <chr>            <dbl>           <dbl>             <dbl>             <dbl>
    ##  1 g00001          0                  0                 0                 0  
    ##  2 g00002          0                  0                 0                 0  
    ##  3 g00003          0                  0                 0                 0  
    ##  4 g00004          0.0676             0                 0                 0  
    ##  5 g00005          0                  0                 0                 0  
    ##  6 g00006          0                  0                 0                 0  
    ##  7 g00007          0                  0                 0                 0  
    ##  8 g00008         59.5               31.8              44.6              43.1
    ##  9 g00009         95.6               39.3              78.4              40.7
    ## 10 g00010        137.                59.6             122.               60.6
    ## # … with 15,534 more rows, and 2 more variables: Eight_Sixteen_c_rep1 <dbl>,
    ## #   Eight_Sixteen_c_rep2 <dbl>
…
